MINI-PROJECT #02 - Making Backyards Affordable for All – STA 9750 Submission Material
…
Warning in left_join(., cbsa_names, by = "CBSA"): Detected an unexpected many-to-many relationship between `x` and `y`.
ℹ Row 1 of `x` matches multiple rows in `y`.
ℹ Row 112 of `y` matches multiple rows in `x`.
ℹ If a many-to-many relationship is expected, set `relationship =
  "many-to-many"` to silence this warning.

Show code:

top_by_year_5182

# A tibble: 38 × 4
    YEAR  CBSA EMPLOYMENT NAME                                           
   <dbl> <dbl>      <dbl> <chr>                                          
 1  2023 41860      32961 San Francisco-Oakland-Fremont, CA Metro Area   
 2  2023 41860      32961 San Francisco-Oakland-Hayward, CA Metro Area   
 3  2023 41860      32961 San Francisco-Oakland-Berkeley, CA Metro Area  
 4  2022 41860      34080 San Francisco-Oakland-Fremont, CA Metro Area   
 5  2022 41860      34080 San Francisco-Oakland-Hayward, CA Metro Area   
 6  2022 41860      34080 San Francisco-Oakland-Berkeley, CA Metro Area  
 7  2021 12060      15810 Atlanta-Sandy Springs-Marietta, GA Metro Area  
 8  2021 12060      15810 Atlanta-Sandy Springs-Roswell, GA Metro Area   
 9  2021 12060      15810 Atlanta-Sandy Springs-Alpharetta, GA Metro Area
10  2019 41860      24154 San Francisco-Oakland-Fremont, CA Metro Area   
# ℹ 28 more rows
…
